<?xml version="1.0" encoding="utf-8"?>
<!DOCTYPE svg PUBLIC "-//W3C//DTD SVG 1.1//EN" "http://www.w3.org/Graphics/SVG/1.1/DTD/svg11.dtd">
<svg version="1.1" xmlns="http://www.w3.org/2000/svg" xmlns:xlink="http://www.w3.org/1999/xlink" viewBox="0 0 200 150">
	<defs>
		<style>
			@import url("https://fonts.googleapis.com/css2?family=RocknRoll+One&amp;display=swap");
		</style>
	</defs>
	<defs>
		<style>
			@import url("https://fonts.googleapis.com/css2?family=RocknRoll+One&amp;display=swap");
		</style>
	</defs>
	<rect x="0" y="0" width="20" height="30" style="stroke: #222222; stroke-width: 2px; fill: #00EE00;"/>
	<line x1="100" y1="50" x2="150" y2="50" style="stroke: #000000;"/>
	<circle cx="50" cy="50" r="30" style="stroke: #111111; stroke-width: 1px; fill: red;"/>
	<text x="10" y="20" style="fill: #222222; font-size: 20px;">Police par défaut</text>
	<text x="10" y="80" style="fill: #222222; font-size: 20px; font-family: RocknRoll One;">Police externe</text>
	<text x="10" y="50" transform="rotate(-20,10,50)" style="fill: #222222; font-size: 10px;">texte penché</text>
	<path d="M10 80 Q 52.5 10, 95 80 T 180 80" style="stroke: black; fill: none;"/>
	<polyline points="10,110 50,90 70,120" style="stroke: #FF0000; fill: none;"/>
</svg>